%YAML 1.1
%TAG !u! tag:unity3d.com,2011:
--- !u!1045 &1
EditorBuildSettings:
  m_ObjectHideFlags: 0
  serializedVersion: 2
  m_Scenes:
  - enabled: 1
    path: Assets/Scenes/Menu.unity
    guid: 47ca78317e5c534479a263b3e5284be1
  - enabled: 1
    path: Assets/Scenes/Nivel1.unity
    guid: 2cda990e2423bbf4892e6590ba056729
  - enabled: 1
    path: Assets/Scenes/Instrucciones.unity
    guid: 2bd636e88c86bfb46aa07e25a5c3e729
  - enabled: 1
    path: Assets/Scenes/Perdiste.unity
    guid: e18a901696d5f4d429d4f9469639fb70
  m_configObjects: {}
