%YAML 1.1
%TAG !u! tag:unity3d.com,2011:
--- !u!74 &7400000
AnimationClip:
  m_ObjectHideFlags: 0
  m_CorrespondingSourceObject: {fileID: 0}
  m_PrefabInstance: {fileID: 0}
  m_PrefabAsset: {fileID: 0}
  m_Name: PerroMoricion
  serializedVersion: 6
  m_Legacy: 0
  m_Compressed: 0
  m_UseHighQualityCurve: 1
  m_RotationCurves: []
  m_CompressedRotationCurves: []
  m_EulerCurves: []
  m_PositionCurves: []
  m_ScaleCurves: []
  m_FloatCurves: []
  m_PPtrCurves:
  - curve:
    - time: 0
      value: {fileID: 371557489, guid: aa5777fe46624804d84b6272cdc621e2, type: 3}
    - time: 0.21666667
      value: {fileID: -1943886746, guid: aa5777fe46624804d84b6272cdc621e2, type: 3}
    - time: 0.43333334
      value: {fileID: -523784547, guid: aa5777fe46624804d84b6272cdc621e2, type: 3}
    - time: 0.65
      value: {fileID: -1760157456, guid: aa5777fe46624804d84b6272cdc621e2, type: 3}
    - time: 0.8833333
      value: {fileID: 2135645519, guid: aa5777fe46624804d84b6272cdc621e2, type: 3}
    - time: 1.1
      value: {fileID: 1919595636, guid: aa5777fe46624804d84b6272cdc621e2, type: 3}
    - time: 1.2833333
      value: {fileID: 2020517146, guid: aa5777fe46624804d84b6272cdc621e2, type: 3}
    - time: 1.45
      value: {fileID: 1956501999, guid: aa5777fe46624804d84b6272cdc621e2, type: 3}
    attribute: m_Sprite
    path: 
    classID: 212
    script: {fileID: 0}
  m_SampleRate: 60
  m_WrapMode: 0
  m_Bounds:
    m_Center: {x: 0, y: 0, z: 0}
    m_Extent: {x: 0, y: 0, z: 0}
  m_ClipBindingConstant:
    genericBindings:
    - serializedVersion: 2
      path: 0
      attribute: 0
      script: {fileID: 0}
      typeID: 212
      customType: 23
      isPPtrCurve: 1
    pptrCurveMapping:
    - {fileID: 371557489, guid: aa5777fe46624804d84b6272cdc621e2, type: 3}
    - {fileID: -1943886746, guid: aa5777fe46624804d84b6272cdc621e2, type: 3}
    - {fileID: -523784547, guid: aa5777fe46624804d84b6272cdc621e2, type: 3}
    - {fileID: -1760157456, guid: aa5777fe46624804d84b6272cdc621e2, type: 3}
    - {fileID: 2135645519, guid: aa5777fe46624804d84b6272cdc621e2, type: 3}
    - {fileID: 1919595636, guid: aa5777fe46624804d84b6272cdc621e2, type: 3}
    - {fileID: 2020517146, guid: aa5777fe46624804d84b6272cdc621e2, type: 3}
    - {fileID: 1956501999, guid: aa5777fe46624804d84b6272cdc621e2, type: 3}
  m_AnimationClipSettings:
    serializedVersion: 2
    m_AdditiveReferencePoseClip: {fileID: 0}
    m_AdditiveReferencePoseTime: 0
    m_StartTime: 0
    m_StopTime: 1.4666667
    m_OrientationOffsetY: 0
    m_Level: 0
    m_CycleOffset: 0
    m_HasAdditiveReferencePose: 0
    m_LoopTime: 1
    m_LoopBlend: 0
    m_LoopBlendOrientation: 0
    m_LoopBlendPositionY: 0
    m_LoopBlendPositionXZ: 0
    m_KeepOriginalOrientation: 0
    m_KeepOriginalPositionY: 1
    m_KeepOriginalPositionXZ: 0
    m_HeightFromFeet: 0
    m_Mirror: 0
  m_EditorCurves: []
  m_EulerEditorCurves: []
  m_HasGenericRootTransform: 0
  m_HasMotionFloatCurves: 0
  m_Events:
  - time: 0
    functionName: MyOnSOund
    data: 
    objectReferenceParameter: {fileID: 0}
    floatParameter: 0
    intParameter: 0
    messageOptions: 0
  - time: 1.4333333
    functionName: MyOnDestroy
    data: 
    objectReferenceParameter: {fileID: 0}
    floatParameter: 0
    intParameter: 0
    messageOptions: 0
